{
  "Characters": [
    {
      "Id": "28",
      "World": "1001",
      "Character_Name": "バナナミルクちゃん",
      "Description": "いいことをすると、バナナミルクをあげて悪いことをするとげんこつをくだされるよ。",
      "Author_Name": "今野 いずみ",
      "Sex": "female",
      "Age": "11",
      "Address": "宮城県",
      "Thumbnail": "",
      "SoundId": "5",
      "AnimationType": "1"
    },
    {
      "Id": "27",
      "World": "1001",
      "Character_Name": "フルマシュちゃん",
      "Description": "フルーツ好きでかわいいおんなのこ。悪いことをすると、おゆのジュースをまきちらす。6才の女の子",
      "Author_Name": "今野 いずみ",
      "Sex": "female",
      "Age": "11",
      "Address": "宮城県",
      "Thumbnail": "",
      "SoundId": "5",
      "AnimationType": "2"
    },
    {
      "Id": "26",
      "World": "1000",
      "Character_Name": "やみのモンスター",
      "Description": "やみから生まれたモンスター",
      "Author_Name": "黒澤好盛",
      "Sex": "male",
      "Age": "9",
      "Address": "宮城県",
      "Thumbnail": "",
      "SoundId": "4",
      "AnimationType": "4"
    },
    {
      "Id": "25",
      "World": "1000",
      "Character_Name": "うしたこ",
      "Description": "HP500 P1000 G200 とっしん",
      "Author_Name": "井上 雄太",
      "Sex": "male",
      "Age": "10",
      "Address": "宮城県",
      "Thumbnail": "",
      "SoundId": "6",
      "AnimationType": "4"
    },
    {
      "Id": "24",
      "World": "1001",
      "Character_Name": "黒ゴムZ",
      "Description": "ムテキ",
      "Author_Name": "生出 陸人",
      "Sex": "male",
      "Age": "10",
      "Address": "宮城県",
      "Thumbnail": "",
      "SoundId": "4",
      "AnimationType": "4"
    },
    {
      "Id": "23",
      "World": "1001",
      "Character_Name": "ゆみちゃん",
      "Description": "かわいいおんなのこがすき。",
      "Author_Name": "おおた あやか",
      "Sex": "female",
      "Age": "6",
      "Address": "宮城県",
      "Thumbnail": "",
      "SoundId": "1",
      "AnimationType": "7"
    },
    {
      "Id": "22",
      "World": "1000",
      "Character_Name": "おじひげ",
      "Description": "たのしませる。お酒が大好き。",
      "Author_Name": "おおた いぶき",
      "Sex": "female",
      "Age": "9",
      "Address": "宮城県",
      "Thumbnail": "",
      "SoundId": "6",
      "AnimationType": "7"
    },
    {
      "Id": "21",
      "World": "1001",
      "Character_Name": "レインボーなビスケット？",
      "Description": "きみどりのところをたべると、花のあじがする。赤のところをたべるとちのあじがする。",
      "Author_Name": "もぎ あおい",
      "Sex": "female",
      "Age": "7",
      "Address": "宮城県",
      "Thumbnail": "",
      "SoundId": "1",
      "AnimationType": "2"
    },
    {
      "Id": "20",
      "World": "1000",
      "Character_Name": "ピンクモンスター",
      "Description": "やさしい",
      "Author_Name": "黒澤 朋加",
      "Sex": "female",
      "Age": "12",
      "Address": "宮城県",
      "Thumbnail": "",
      "SoundId": "1",
      "AnimationType": "5"
    },
    {
      "Id": "19",
      "World": "1000",
      "Character_Name": "歯科ゴルフだい1位の人",
      "Description": "HP374 ちから99999 頭-274(ほかなし)。ゴルフと歯科は1位をとっぱしている",
      "Author_Name": "小山内 しゅん",
      "Sex": "male",
      "Age": "8",
      "Address": "宮城県",
      "Thumbnail": "",
      "SoundId": "6",
      "AnimationType": "8"
    },
    {
      "Id": "18",
      "World": "1001",
      "Character_Name": "フルビくん",
      "Description": "フルーツビスケットの男の子で好きなものはスイーツ。いつもまちがえやすい4才の男の子",
      "Author_Name": "今野 いずみ",
      "Sex": "female",
      "Age": "11",
      "Address": "宮城県",
      "Thumbnail": "",
      "SoundId": "8",
      "AnimationType": "3"
    },
    {
      "Id": "17",
      "World": "1000",
      "Character_Name": "みずたまモンスター",
      "Description": "みずたまがすごくすき。やさしい子だけどつよいよ！！",
      "Author_Name": "たけうち ことの",
      "Sex": "female",
      "Age": "7",
      "Address": "宮城県",
      "Thumbnail": "",
      "SoundId": "4",
      "AnimationType": "2"
    },
    {
      "Id": "16",
      "World": "1000",
      "Character_Name": "さかさまえつち",
      "Description": "？",
      "Author_Name": "さとう けいすけ",
      "Sex": "male",
      "Age": "7",
      "Address": "宮城県",
      "Thumbnail": "",
      "SoundId": "2",
      "AnimationType": "6"
    },
    {
      "Id": "15",
      "World": "1001",
      "Character_Name": "スーパーサイヤ人おっさん",
      "Description": "弱点ははらのうちきず。らんぼう。",
      "Author_Name": "あべ りんぜ",
      "Sex": "male",
      "Age": "8",
      "Address": "宮城県",
      "Thumbnail": "",
      "SoundId": "4",
      "AnimationType": "8"
    },
    {
      "Id": "14",
      "World": "1000",
      "Character_Name": "ビーも",
      "Description": "むてき",
      "Author_Name": "おくだ わたる",
      "Sex": "male",
      "Age": "9",
      "Address": "宮城県",
      "Thumbnail": "",
      "SoundId": "3",
      "AnimationType": "5"
    },
    {
      "Id": "13",
      "World": "1000",
      "Character_Name": "ラピュタによくいるやつ",
      "Description": "？？？？？",
      "Author_Name": "力石 大地",
      "Sex": "male",
      "Age": "11",
      "Address": "宮城県",
      "Thumbnail": "",
      "SoundId": "7",
      "AnimationType": "8"
    },
    {
      "Id": "12",
      "World": "1000",
      "Character_Name": "たこソーくん",
      "Description": "いつもわすれんぼうでおっちょこちょい。たのんだこともわすれちゃう男の子",
      "Author_Name": "今野 いずみ",
      "Sex": "female",
      "Age": "11",
      "Address": "宮城県",
      "Thumbnail": "",
      "SoundId": "2",
      "AnimationType": "5"
    },
    {
      "Id": "11",
      "World": "1000",
      "Character_Name": "もやもやくん",
      "Description": "はかやずら",
      "Author_Name": "こんの りゅうや",
      "Sex": "male",
      "Age": "10",
      "Address": "宮城県",
      "Thumbnail": "",
      "SoundId": "3",
      "AnimationType": "7"
    },
    {
      "Id": "10",
      "World": "1000",
      "Character_Name": "みずいろモンスター",
      "Description": "みずいろがすきで、みずいろがきらいな人にいじわるする",
      "Author_Name": "",
      "Sex": "female",
      "Age": "8",
      "Address": "宮城県",
      "Thumbnail": "",
      "SoundId": "4",
      "AnimationType": "5"
    },
    {
      "Id": "9",
      "World": "1000",
      "Character_Name": "うんこくん",
      "Description": "？？？？？？？？",
      "Author_Name": "窪木 陽人",
      "Sex": "male",
      "Age": "10",
      "Address": "宮城県",
      "Thumbnail": "",
      "SoundId": "4",
      "AnimationType": "6"
    },
    {
      "Id": "8",
      "World": "1000",
      "Character_Name": "レディース エンド ジェントルメン",
      "Description": "ベテランの司会者",
      "Author_Name": "みっちー",
      "Sex": "male",
      "Age": "12",
      "Address": "宮城県",
      "Thumbnail": "",
      "SoundId": "9",
      "AnimationType": "2"
    },
    {
      "Id": "7",
      "World": "9999",
      "Character_Name": "ふるやまくん",
      "Description": "たまにおなかをだしていかくする",
      "Author_Name": "たかゆき",
      "Sex": "male",
      "Age": "34",
      "Address": "宮城県",
      "Thumbnail": "",
      "SoundId": "4",
      "AnimationType": "2"
    },
    {
      "Id": "6",
      "World": "1000",
      "Character_Name": "もじゃもじゃもんすたー",
      "Description": "もじゃもじゃ",
      "Author_Name": "まさと",
      "Sex": "male",
      "Age": "6",
      "Address": "宮城県",
      "Thumbnail": "",
      "SoundId": "4",
      "AnimationType": "4"
    },
    {
      "Id": "5",
      "World": "1001",
      "Character_Name": "はは",
      "Description": "おとうさんをふむ",
      "Author_Name": "どむ",
      "Sex": "male",
      "Age": "34",
      "Address": "宮城県",
      "Thumbnail": "",
      "SoundId": "5",
      "AnimationType": "3"
    },
    {
      "Id": "4",
      "World": "1000",
      "Character_Name": "いちご虫",
      "Description": "いちご畑に生息している。たまに、まちがえて出荷される",
      "Author_Name": "おおた さやか",
      "Sex": "female",
      "Age": "12",
      "Address": "宮城県",
      "Thumbnail": "",
      "SoundId": "5",
      "AnimationType": "5"
    },
    {
      "Id": "3",
      "World": "1001",
      "Character_Name": "くるんぱキャンディー",
      "Description": "いつもクルクル回っている、キャンディーの精。実はどくを持っている！",
      "Author_Name": "おおた さやか",
      "Sex": "female",
      "Age": "12",
      "Address": "宮城県",
      "Thumbnail": "",
      "SoundId": "1",
      "AnimationType": "4"
    },
    {
      "Id": "2",
      "World": "1001",
      "Character_Name": "すいどうボーヤ",
      "Description": "すいどうの中に住んでいるようせい。たまに出て来てイタズラする。",
      "Author_Name": "おおた さやか",
      "Sex": "female",
      "Age": "12",
      "Address": "宮城県",
      "Thumbnail": "",
      "SoundId": "6",
      "AnimationType": "3"
    },
    {
      "Id": "1",
      "World": "1000",
      "Character_Name": "ビオ",
      "Description": "カラフルなワンちゃん。",
      "Author_Name": "はしもと にこ",
      "Sex": "female",
      "Age": "4",
      "Address": "宮城県",
      "Thumbnail": "",
      "SoundId": "2",
      "AnimationType": "2"
    },
    {
      "Id": "0",
      "World": "1000",
      "Character_Name": "ハンガーマン",
      "Description": "せかい中のハンガーを折る",
      "Author_Name": "はしもと げんた",
      "Sex": "male",
      "Age": "11",
      "Address": "宮城県",
      "Thumbnail": "",
      "SoundId": "1",
      "AnimationType": "1"
    }
  ]
}